[gd_scene load_steps=3 format=2]

[ext_resource path="res://assets/Track/Respawn.gd" type="Script" id=1]

[sub_resource type="SphereShape" id=1]

[node name="Respawn" type="Spatial"]
transform = Transform( -4.37114e-08, 0, -1, 0, 1, 0, 1, 0, -4.37114e-08, -27.4847, 0, 36.0645 )

[node name="Area" type="Area" parent="."]
script = ExtResource( 1 )

[node name="CollisionShape" type="CollisionShape" parent="Area"]
transform = Transform( 7.6477, 0, 0, 0, 7.6477, 0, 0, 0, 7.6477, 0, 0, 0 )
shape = SubResource( 1 )

[node name="Position" type="Spatial" parent="."]
transform = Transform( 1, 0, 1.19209e-07, 0, 1, 0, -1.19209e-07, 0, 1, 0, 1.29688, 0 )
[connection signal="body_entered" from="Area" to="Area" method="_on_Area_body_entered"]
