# Blender MTL File: 'Trailer_02.blend'
# Material Count: 3

newmtl metal
Ns 225.000000
Ka 1.000000 1.000000 1.000000
Kd 0.162642 0.162642 0.162642
Ks 0.500000 0.500000 0.500000
Ke 0.0 0.0 0.0
Ni 1.450000
d 1.000000
illum 2

newmtl metal_01
Ns 225.000000
Ka 1.000000 1.000000 1.000000
Kd 0.033103 0.033103 0.033103
Ks 0.500000 0.500000 0.500000
Ke 0.0 0.0 0.0
Ni 1.450000
d 1.000000
illum 2

newmtl reifen
Ns 225.000000
Ka 1.000000 1.000000 1.000000
Kd 0.002579 0.002579 0.002579
Ks 0.500000 0.500000 0.500000
Ke 0.0 0.0 0.0
Ni 1.450000
d 1.000000
illum 2
